USER: Greg Gorlen [gsgorle1]
TASK: milk2
LANG: C

Compiling...
Compile: OK

Executing...
   Test 1: TEST OK [0.000 secs, 1176 KB]
   Test 2: TEST OK [0.000 secs, 1240 KB]
   Test 3: TEST OK [0.000 secs, 1256 KB]
   Test 4: TEST OK [0.000 secs, 1232 KB]
   Test 5: TEST OK [0.000 secs, 492 KB]
   Test 6: TEST OK [0.000 secs, 1240 KB]
   Test 7: TEST OK [0.000 secs, 1312 KB]
   Test 8: TEST OK [0.004 secs, 1380 KB]

All tests OK.
YOUR PROGRAM ('milk2') WORKED FIRST TIME!  That's fantastic
-- and a rare thing.  Please accept these special automated
congratulations.

Here are the test data inputs:

------- test 1 [length 10 bytes] ----
1
100 200
------- test 2 [length 34 bytes] ----
4
100 200
201 301
302 402
403 503
------- test 3 [length 54 bytes] ----
10
2 3
4 5
6 7
8 9
10 11
12 13
14 15
16 17
18 19
1 20
------- test 4 [length 36 bytes] ----
3
100 102
64100 64102
128100 128102
------- test 5 [length 1291 bytes] ----
100
99000 101000
98000 102000
97000 103000
96000 104000
95000 105000
94000 106000
93000 107000
92000 108000
91000 109000
90000 110000
89000 111000
88000 112000
87000 113000
86000 114000
85000 115000
84000 116000
83000 117000
82000 118000
81000 119000
80000 120000
79000 121000
78000 122000
77000 123000
76000 124000
75000 125000
74000 126000
73000 127000
72000 128000
71000 129000
70000 130000
69000 131000
68000 132000
67000 133000
66000 134000
65000 135000
64000 136000
63000 137000
62000 138000
61000 139000
60000 140000
59000 141000
58000 142000
57000 143000
56000 144000
55000 145000
54000 146000
53000 147000
52000 148000
51000 149000
50000 150000
49000 151000
48000 152000
47000 153000
46000 154000
45000 155000
44000 156000
43000 157000
42000 158000
41000 159000
40000 160000
39000 161000
38000 162000
37000 163000
36000 164000
35000 165000
34000 166000
33000 167000
32000 168000
31000 169000
30000 170000
29000 171000
28000 172000
27000 173000
26000 174000
25000 175000
24000 176000
23000 177000
22000 178000
21000 179000
20000 180000
19000 181000
18000 182000
17000 183000
16000 184000
15000 185000
14000 186000
13000 187000
12000 188000
11000 189000
10000 190000
9000 191000
8000 192000
7000 193000
6000 194000
5000 195000
4000 196000
3000 197000
2000 198000
1000 199000
0 200000
------- test 6 [length 52 bytes] ----
6
100 200
200 400
400 800
800 1600
50 100
1700 3200
------- test 7 [length 11308 bytes] ----
1000
26022 26065
17435 17463
17766 17811
6543 6575
19436 19516
17161 17174
11704 11736
11040 11088
8106 8142
19810 19855
9464 9473
13056 13082
20364 20421
19954 19959
2697 2765
3465 3548
9267 9282
26107 26138
20459 20550
14267 14358
14968 15068
12099 12156
21594 21616
7965 8023
11094 11171
453 480
15105 15113
26944 27006
11120 11126
21755 21819
24531 24628
26838 26900
18740 18760
14038 14044
24321 24322
1917 1971
14251 14321
14145 14146
8207 8225
18448 18454
8917 8949
1116 1180
29584 29606
28081 28127
7356 7428
31553 31555
21880 21893
5218 5231
5903 5983
27001 27100
6937 6962
24391 24466
26994 27055
13325 13381
19376 19381
21636 21639
29536 29630
12074 12081
2985 3033
7868 7884
15284 15331
31870 31957
31081 31179
30252 30332
11216 11275
31772 31838
18894 18900
9589 9664
23909 23993
16660 16707
15940 16001
29679 29701
29910 30008
8600 8624
22395 22467
22702 22776
2114 2177
22228 22230
1467 1488
2590 2658
4141 4203
12123 12207
23778 23851
14409 14449
707 799
16173 16190
31734 31784
23724 23728
24001 24019
14967 15064
23899 23969
1981 2072
24057 24149
19154 19201
19376 19422
15879 15931
11138 11172
825 869
26175 26224
749 772
10099 10176
20890 20912
13592 13622
17920 17975
18769 18839
8449 8474
16584 16593
4105 4205
2326 2373
24168 24204
20144 20169
4769 4838
19668 19729
15655 15706
7670 7717
27506 27547
1795 1867
24834 24868
13353 13402
27416 27462
14176 14185
15320 15343
18537 18585
24472 24475
11128 11210
23795 23895
12106 12107
908 932
10193 10261
27384 27411
22851 22921
26582 26658
14507 14559
7026 7068
27850 27896
4359 4373
3183 3216
14851 14869
24841 24876
27480 27545
21677 21769
21559 21643
12598 12605
4943 5030
20172 20196
23787 23797
7301 7313
26873 26952
15947 15978
27492 27542
30921 30971
29898 29960
3751 3829
3319 3377
7585 7594
10528 10546
30184 30194
5982 6034
15957 16026
18524 18617
16068 16103
9637 9689
1609 1667
26277 26339
30823 30888
3253 3331
5402 5481
26182 26240
26839 26862
25995 25997
11853 11854
4013 4072
25858 25872
14588 14667
25517 25518
12298 12342
21341 21391
6707 6731
23359 23441
23693 23700
12848 12897
28335 28394
7126 7172
12359 12395
12412 12498
17152 17180
27731 27761
7335 7385
22912 22930
5902 5961
21616 21624
21916 21922
20452 20509
21771 21779
3137 3187
19021 19080
4732 4751
21760 21806
4933 4983
8578 8674
21426 21453
24065 24092
22305 22313
20892 20914
28555 28635
19445 19446
25589 25677
20023 20035
22861 22948
14601 14606
8529 8549
13157 13187
10187 10240
15552 15557
8657 8740
3987 3990
11845 11889
15007 15014
3663 3700
14083 14149
10999 11097
15742 15770
3772 3798
12270 12329
31031 31039
25973 26004
20122 20159
8001 8096
25923 25993
26735 26752
5133 5160
20734 20822
30630 30709
7251 7343
20887 20896
21305 21349
27455 27463
4315 4396
27501 27502
5304 5316
8420 8453
17659 17675
27501 27541
6451 6549
9651 9677
25331 25412
22199 22255
17968 18016
21741 21753
3072 3093
4067 4073
13958 14039
133 224
11689 11704
17112 17192
6775 6874
7493 7505
431 439
29251 29308
12406 12453
8083 8104
30363 30372
689 721
19837 19880
18139 18205
21741 21789
20286 20289
28439 28507
4246 4311
17387 17487
29941 29964
25331 25347
9708 9745
2065 2134
960 967
30763 30779
28928 29023
13857 13887
18440 18450
19491 19494
13786 13788
3533 3576
17631 17695
6147 6207
12002 12092
17932 17957
4323 4401
6619 6642
21525 21565
3334 3411
23214 23312
3421 3466
8899 8926
28834 28923
2288 2322
11076 11096
27640 27663
1720 1814
17189 17233
17481 17562
20615 20682
26847 26937
15595 15681
25289 25336
10408 10504
2009 2035
25597 25630
1280 1317
5706 5746
17319 17365
16068 16108
21742 21796
7666 7739
22578 22678
17043 17130
5838 5857
20293 20329
10657 10671
20093 20171
28988 29066
816 834
12867 12892
10696 10697
237 301
6059 6152
2334 2411
4618 4671
15637 15665
22822 22858
25378 25458
24283 24314
11619 11645
26250 26331
16884 16915
15153 15227
30366 30440
10210 10270
3678 3778
22096 22179
9190 9253
21670 21760
23904 23977
17771 17862
21910 21944
7070 7106
18395 18460
22992 22993
12219 12242
14694 14717
14052 14141
7109 7196
11070 11129
17052 17069
23218 23308
16385 16438
6039 6073
25251 25325
11051 11092
18366 18427
6709 6736
15371 15411
26902 26907
6256 6272
18041 18134
18837 18861
19685 19739
11299 11317
17750 17771
24802 24827
9260 9312
23147 23218
1680 1727
14511 14537
5800 5804
10236 10295
1181 1209
31685 31739
29171 29235
8163 8246
8478 8565
892 982
4305 4311
20059 20121
2052 2067
29921 29982
12577 12635
16969 17062
8014 8047
12162 12235
3173 3273
6219 6295
5477 5501
974 997
20478 20499
7796 7798
27932 27953
12067 12131
19437 19478
2724 2726
12628 12687
21871 21912
4941 5037
13436 13497
5939 6031
1915 1992
15195 15278
28150 28239
20744 20813
21199 21234
13094 13165
25244 25304
25801 25878
574 606
5604 5674
1631 1643
3124 3165
15111 15134
7127 7195
5135 5145
9352 9440
24479 24524
6887 6909
10866 10934
17130 17211
23321 23339
4294 4320
25590 25628
16483 16485
3625 3643
16329 16351
4115 4173
24188 24198
17104 17110
24910 25003
25652 25718
1152 1203
17568 17590
24275 24278
26202 26277
29785 29828
27299 27340
8351 8362
14923 14929
15376 15385
19429 19518
26134 26173
6511 6605
31470 31553
28309 28336
17060 17065
21572 21616
29238 29315
7890 7985
2380 2406
26993 27052
30856 30861
14096 14108
24539 24609
8327 8354
6880 6956
7198 7249
26546 26625
14157 14225
13618 13662
10188 10256
23353 23409
12480 12531
14508 14536
15159 15250
21228 21236
7077 7140
25493 25576
21673 21755
5130 5189
29887 29937
8392 8439
15143 15196
26085 26102
9388 9404
24280 24320
13203 13249
4561 4570
26964 27047
6861 6890
20084 20161
17841 17922
1289 1307
19842 19899
16990 17031
15399 15452
16692 16711
6310 6343
20475 20558
18278 18320
15540 15605
22105 22190
16812 16836
2459 2506
6610 6638
25195 25269
28376 28438
10243 10335
21464 21512
21054 21127
24008 24028
9619 9659
10825 10892
20034 20042
25404 25472
13645 13705
949 984
30741 30798
25479 25482
11819 11884
30002 30068
25409 25430
6745 6841
1456 1460
24440 24505
5276 5321
27688 27778
23062 23087
31374 31391
5961 5975
25142 25220
7710 7803
6950 6983
10835 10838
4663 4688
12415 12493
24728 24791
28400 28493
10904 10971
11505 11602
8051 8125
13657 13705
5992 6057
12003 12031
10422 10505
17491 17547
7900 7923
12999 13075
19880 19938
20039 20071
8826 8898
1020 1032
23374 23455
24067 24148
25563 25569
13413 13478
11134 11204
24344 24372
25879 25975
13716 13801
17059 17130
13021 13030
18888 18943
27033 27096
3076 3078
20999 21019
21428 21495
23408 23420
3523 3592
3309 3347
28433 28516
29204 29222
17526 17564
16488 16580
19312 19389
18473 18522
1369 1445
15950 15958
318 381
335 355
24871 24916
9363 9373
18931 19005
14352 14388
15763 15831
22025 22111
22225 22236
1900 1982
20060 20114
2236 2251
7251 7294
1547 1632
18437 18520
18676 18734
15400 15480
28430 28462
2603 2660
13781 13790
2795 2894
21626 21687
23680 23690
9112 9124
2651 2692
19525 19623
20574 20659
26736 26775
3655 3724
19213 19289
4350 4421
14599 14627
24346 24424
31842 31940
22608 22609
31901 31990
31482 31567
14002 14077
31861 31877
22469 22535
22419 22486
27103 27127
29904 29991
8137 8204
15488 15557
16745 16767
193 198
30116 30168
12366 12436
12092 12125
20221 20250
30371 30461
28452 28471
9255 9342
21889 21988
24995 25062
31243 31264
18658 18689
3884 3892
25587 25659
10709 10808
20414 20450
24053 24097
28625 28657
21670 21680
19707 19773
3779 3864
8838 8853
6166 6192
10159 10176
16353 16415
12587 12685
3832 3909
5211 5220
3353 3441
31236 31327
14282 14339
9495 9542
7017 7054
6526 6558
23472 23565
26207 26252
22617 22619
31954 31989
2084 2159
4486 4489
14836 14837
14145 14152
3898 3949
14789 14849
2144 2198
10230 10257
12164 12244
12260 12262
17168 17191
25215 25300
13980 14033
20116 20146
7071 7075
5365 5450
14669 14741
29009 29107
25927 26025
27567 27576
24151 24248
28412 28417
15095 15123
12719 12767
15317 15362
9985 10046
3594 3625
19094 19182
14407 14472
6959 7059
24478 24485
27719 27785
3381 3447
9503 9573
3210 3239
19751 19835
18303 18314
12105 12184
2042 2060
25851 25939
27703 27774
942 1042
20380 20463
19559 19562
6961 7007
9258 9304
23172 23188
6667 6712
16682 16728
16741 16746
5272 5332
22596 22674
29064 29094
12891 12923
27819 27846
5776 5822
14283 14300
404 416
2613 2702
27008 27068
30857 30910
2538 2617
24491 24519
10854 10909
31 71
10496 10498
3697 3744
5001 5003
28146 28176
30794 30825
6263 6308
5639 5727
29016 29100
8644 8648
22378 22429
10841 10893
22303 22386
11321 11342
26770 26799
13931 14024
19890 19910
31541 31618
11073 11111
862 895
12259 12290
18838 18896
20209 20263
15591 15635
22866 22876
10937 11037
761 822
5457 5496
6510 6585
13130 13143
5344 5441
22545 22568
7719 7814
9650 9711
16985 17055
13080 13094
3115 3204
11045 11055
1496 1525
26781 26793
3791 3870
9556 9595
27849 27852
14251 14297
1691 1697
2491 2501
8551 8651
12346 12421
15981 15999
19597 19697
20019 20090
13551 13603
15423 15428
26439 26440
18957 18988
31355 31407
4753 4763
23774 23850
10726 10775
9625 9689
19055 19152
22925 23008
29725 29822
23982 24025
26134 26214
25155 25213
27761 27822
7176 7197
24895 24912
5044 5103
22429 22445
22463 22556
19713 19780
25865 25946
25480 25545
28976 29027
30814 30820
6957 6976
7204 7241
3100 3187
12642 12655
7096 7108
24798 24846
31853 31915
243 248
31882 31912
2748 2776
26254 26283
3633 3684
5102 5141
29196 29201
14702 14730
2178 2214
108 129
16322 16382
24350 24385
6964 7056
27197 27253
4714 4747
30479 30557
31176 31268
16979 17052
23749 23750
5876 5894
473 481
31758 31810
19959 19974
6203 6286
19359 19385
904 909
13415 13512
3379 3456
1562 1591
4227 4327
2096 2103
10954 10995
8408 8446
15356 15419
30268 30331
21475 21559
15194 15215
1107 1146
4856 4886
11876 11945
1567 1626
24868 24874
27820 27890
16837 16908
13896 13975
1963 2031
28530 28582
14174 14261
7646 7691
3037 3130
8143 8173
6203 6221
13756 13770
17422 17452
9119 9125
21013 21071
8522 8595
1873 1962
14372 14412
22427 22465
5177 5178
8602 8640
18041 18059
1603 1659
5045 5115
16208 16216
22207 22283
19122 19176
9978 10053
30396 30471
8332 8411
14910 14994
1391 1462
14909 14966
10631 10704
30617 30658
15642 15697
3897 3927
1450 1451
19990 20045
31406 31421
26299 26396
4634 4713
15251 15297
21046 21084
2210 2240
20913 20950
9465 9507
5998 6078
27264 27333
21265 21289
2925 2990
20132 20135
21002 21081
8301 8371
21518 21583
13140 13208
19252 19335
17635 17649
11104 11140
13902 14000
22502 22544
27259 27357
23892 23969
9866 9962
8275 8281
30920 30933
24814 24840
22421 22452
11502 11533
19493 19516
21897 21949
26273 26355
16905 16952
30357 30392
8643 8656
817 868
15358 15457
8771 8812
6402 6475
17519 17550
277 322
25246 25272
14744 14825
11282 11324
16923 16948
29838 29858
3827 3853
18090 18148
12949 13007
2829 2833
11066 11073
9863 9944
11845 11861
26204 26259
18480 18493
22606 22655
22891 22904
12175 12205
24487 24543
20035 20105
15492 15498
15054 15069
23826 23913
30647 30723
559 628
13623 13700
26922 27016
12104 12164
19881 19914
17510 17601
19272 19355
7599 7674
11502 11594
17571 17583
20812 20819
18238 18336
31095 31157
4254 4277
21292 21355
7410 7462
29335 29352
21984 22026
15659 15712
5166 5261
17277 17350
3531 3617
11420 11422
24590 24658
11731 11775
24389 24393
8029 8074
14179 14189
16633 16686
17149 17222
12251 12324
6214 6242
8426 8443
1876 1925
25549 25591
13134 13173
21431 21510
478 566
3446 3488
23917 23983
13222 13240
19093 19121
10911 10946
4447 4450
22003 22011
2451 2482
29726 29774
29897 29933
7981 8031
16256 16343
25867 25901
------- test 8 [length 56571 bytes] ----
5000
22640 22690
7459 7488
10584 10668
220 293
17977 18007
9194 9238
23002 23044
21885 21956
538 624
29391 29457
21227 21304
25886 25905
12114 12185
25166 25184
21848 21862
17248 17293
25439 25483
28045 28084
15585 15626
13092 13167
23561 23581
4341 4402
16663 16741
17015 17104
19221 19291
7527 7574
20180 20206
29459 29496
14226 14227
14608 14696
27495 27557
30089 30112
26825 26913
22503 22569
11590 11601
28168 28214
27083 27149
20414 20494
14458 14526
20933 20939
4253 4348
30204 30236
24461 24553
19966 20042
6163 6240
22769 22845
17725 17782
17574 17601
22573 22616
30419 30450
3499 3567
21159 21184
564 662
7248 7304
9537 9576
27599 27685
23909 23939
13505 13591
7471 7502
1618 1714
16446 16528
19984 20016
2190 2249
18161 18250
25454 25541
4379 4422
29209 29261
24774 24866
29030 29090
19677 19710
28047 28131
23973 24004
3460 3522
10520 10583
7605 7671
3625 3723
26599 26621
17587 17682
23535 23629
31313 31396
1243 1257
1969 1972
31618 31684
725 794
22502 22514
25540 25586
1139 1202
22018 22102
13181 13274
19333 19342
264 349
16198 16220
3147 3159
3917 4013
29411 29465
17491 17514
28713 28746
25776 25876
18626 18709
31723 31740
4006 4036
1670 1692
20960 20961
26694 26724
12344 12383
15029 15088
25845 25885
22548 22598
25613 25700
8309 8366
463 560
26155 26217
11638 11708
23383 23400
31129 31168
1479 1517
13564 13569
29907 29984
20659 20745
3961 4054
9224 9257
13694 13736
29747 29799
30887 30893
30519 30614
5098 5186
14344 14390
3766 3863
30792 30857
15378 15403
15029 15063
10705 10780
12200 12245
9083 9100
30382 30458
8782 8821
29094 29118
8416 8489
22368 22373
10425 10476
3390 3393
9621 9715
21700 21788
17786 17849
23947 24021
31348 31436
13221 13259
25109 25120
9937 10008
7035 7077
17282 17373
25116 25191
18227 18303
1279 1340
15107 15156
19375 19465
10750 10840
14212 14278
6178 6257
674 709
9876 9946
13876 13934
5606 5689
3404 3474
1798 1821
4600 4639
13502 13521
29924 29969
3897 3965
3370 3375
20362 20462
12944 13011
8120 8171
20209 20298
16429 16468
5893 5925
24354 24392
10551 10630
5081 5148
25301 25318
31808 31862
23614 23702
20196 20209
25168 25207
30376 30471
2775 2868
19532 19573
3345 3412
24 124
5948 5985
6101 6153
15903 15914
24155 24239
13958 14044
25544 25600
3510 3568
989 1023
30911 30969
7508 7599
5810 5893
30940 31009
28579 28586
27014 27031
27791 27806
7987 8050
22763 22838
25841 25912
6165 6234
15049 15074
25680 25684
17896 17975
3744 3781
19365 19412
2329 2338
10588 10624
23808 23854
19861 19878
22868 22883
26209 26251
20489 20567
6532 6615
2993 3052
31299 31310
9140 9186
19813 19908
24307 24356
30033 30066
20710 20751
21959 22054
18703 18796
1585 1683
28125 28163
28412 28491
728 808
1512 1607
4653 4715
19181 19200
15970 16004
11123 11179
18289 18310
14219 14264
29423 29451
14854 14931
10124 10223
24794 24888
9869 9920
17648 17741
24721 24729
8866 8881
18247 18299
2325 2344
28493 28509
22459 22504
12033 12072
18960 19013
20073 20088
23042 23083
5615 5651
22257 22297
16693 16769
28896 28971
10663 10678
923 925
12557 12604
26498 26595
12507 12582
15044 15069
5219 5245
9889 9939
14517 14616
13460 13476
25952 26040
24052 24115
22467 22530
7142 7156
14128 14210
20286 20373
920 928
22561 22631
15595 15681
3581 3595
25598 25679
27069 27156
1042 1064
23995 24036
23757 23792
18272 18296
8388 8429
12025 12033
30567 30653
21406 21462
1143 1209
1988 2081
1478 1522
26709 26719
18794 18889
7388 7460
12603 12697
26797 26845
11175 11247
28298 28336
17091 17144
26043 26065
28841 28858
30734 30823
21500 21574
21948 22040
1447 1464
26025 26097
10171 10197
22515 22615
118 206
26192 26282
1610 1639
3627 3639
23828 23916
3325 3403
12853 12907
30422 30442
13774 13871
12953 12988
27851 27938
30667 30677
31751 31817
1421 1438
1836 1886
20128 20211
26525 26543
1268 1272
29704 29793
11959 12012
20210 20229
10597 10610
6380 6408
26058 26154
10646 10652
4454 4541
27208 27283
6459 6524
5765 5848
14200 14240
24309 24409
30698 30765
29977 30055
18888 18955
14969 15040
11188 11196
6535 6591
638 650
2008 2063
8598 8688
27918 27924
4011 4018
6156 6235
5226 5303
22202 22282
7384 7450
6425 6478
2372 2401
31434 31436
22326 22370
12495 12556
25715 25797
14011 14043
4972 5029
13073 13080
6692 6702
3052 3055
27398 27467
24280 24310
19864 19899
12772 12782
4998 5035
14022 14097
12297 12304
12859 12924
3855 3874
22365 22400
16939 16981
2852 2871
8122 8170
29910 29955
17987 18015
26508 26550
11388 11452
22167 22217
12272 12360
30185 30249
16064 16073
25933 25956
10624 10631
13211 13293
4750 4841
21666 21726
11256 11280
22266 22296
11611 11711
19855 19877
9132 9217
21748 21756
5755 5852
13403 13454
9348 9403
24153 24229
2607 2662
29997 30043
12501 12503
453 462
19282 19355
28483 28578
4066 4094
18465 18483
1962 2006
23245 23326
11777 11860
1231 1259
13272 13363
20573 20611
6992 7011
1386 1406
7649 7712
23046 23127
2074 2101
31544 31588
26726 26820
5903 5992
23767 23788
26662 26741
14701 14725
25415 25471
26568 26661
2419 2487
21711 21794
11264 11269
2100 2129
25597 25608
27214 27252
10920 10978
28495 28582
28446 28469
23355 23356
22011 22091
3758 3791
11064 11110
6348 6352
20701 20772
23154 23204
23774 23810
3848 3874
26062 26096
24573 24672
25495 25500
10326 10424
8454 8551
13910 13958
2119 2143
22443 22498
25894 25993
6437 6499
24885 24980
14430 14490
12439 12481
4185 4241
24755 24836
13456 13546
18551 18554
9308 9317
18792 18888
19007 19086
7481 7488
9467 9513
20524 20590
22263 22294
7638 7703
31203 31274
18334 18378
29467 29552
12965 13038
5307 5384
21826 21917
25306 25364
15320 15396
20204 20210
16197 16219
4282 4314
8840 8930
3317 3396
16624 16632
6088 6109
30328 30418
14454 14542
30625 30672
26985 27073
11617 11679
31171 31216
24444 24540
31174 31204
19953 19963
26159 26258
21423 21482
30173 30196
22367 22404
16607 16621
12376 12425
6193 6228
6049 6125
21587 21595
29964 29968
31506 31599
6727 6822
23424 23483
3073 3138
7833 7854
13036 13089
29071 29137
31181 31206
17706 17739
2896 2927
7485 7565
22746 22777
7849 7943
15890 15906
23002 23092
9567 9618
20554 20594
5634 5683
20714 20797
17171 17181
13055 13119
16155 16196
31839 31889
3181 3261
901 963
10264 10308
31100 31174
23690 23723
13331 13370
21934 22025
22098 22158
19642 19710
20653 20738
24672 24765
30691 30735
23203 23285
25616 25622
27896 27899
6362 6421
16133 16153
30784 30805
17307 17347
15600 15658
16172 16251
9913 9936
27269 27345
23273 23281
7401 7475
11326 11423
25179 25264
30002 30042
2626 2699
9287 9294
23845 23903
21538 21605
13751 13839
15376 15416
5861 5933
18134 18195
26152 26181
1867 1884
11979 12013
9054 9083
21095 21160
9489 9565
28296 28325
25903 25918
8842 8889
20588 20603
19265 19278
28743 28804
7704 7767
30761 30848
850 925
8591 8679
10466 10474
29152 29174
22452 22484
21813 21846
31485 31575
20939 20943
4221 4259
28495 28577
22055 22074
11711 11787
6442 6444
22821 22883
13788 13839
27844 27862
22897 22956
7451 7549
9986 10082
12873 12957
2252 2270
3888 3916
9019 9110
15865 15965
1427 1487
2862 2950
31700 31733
31801 31830
22966 22970
14697 14750
24653 24732
5947 6039
16423 16461
27691 27735
23699 23797
2227 2283
11726 11728
2491 2586
1221 1321
23602 23689
561 611
30465 30551
5548 5562
28442 28500
13739 13796
16080 16114
16322 16360
14903 14928
10577 10579
3273 3323
27877 27925
13301 13366
28271 28276
25832 25889
8614 8681
18486 18561
15271 15304
25766 25838
24376 24378
22220 22253
20655 20717
31681 31730
13819 13855
17550 17575
3506 3513
21158 21239
15795 15889
7180 7209
30285 30295
11123 11200
16721 16779
15854 15922
28207 28304
24225 24307
25954 26007
10723 10741
22616 22702
27212 27293
27167 27262
17723 17812
26360 26434
1306 1351
29728 29828
17952 18007
29167 29236
16573 16631
28067 28118
8042 8099
23015 23111
22303 22396
29057 29096
535 601
31518 31582
25385 25439
19390 19444
28259 28266
15287 15378
16679 16766
946 991
24702 24744
5314 5410
29394 29440
30172 30217
28385 28413
16346 16396
9461 9481
5459 5508
7243 7264
28260 28353
9909 9942
2511 2577
6993 7049
3434 3444
5238 5334
5725 5750
15514 15594
4126 4200
29798 29822
27564 27613
23219 23273
25848 25893
161 183
7933 8017
23432 23449
26742 26779
21495 21518
5553 5554
16761 16768
24952 25001
25943 26040
9337 9388
19476 19523
8001 8050
22995 23014
9763 9855
11880 11881
6168 6199
1862 1959
10252 10316
18688 18768
9861 9889
29855 29925
10541 10584
1400 1420
18987 19080
2756 2817
26056 26106
10673 10688
338 374
7196 7292
15294 15310
22705 22729
8957 8983
15027 15111
3190 3212
3598 3623
25515 25576
29700 29761
16496 16591
9744 9789
21689 21780
12637 12734
23156 23219
4192 4237
29535 29546
5611 5674
3680 3760
29028 29097
22860 22872
1115 1176
26520 26530
29748 29807
26603 26700
8739 8761
7443 7514
3630 3656
6207 6266
29548 29601
16910 16958
24119 24207
16990 17010
2453 2519
15445 15503
13187 13261
5528 5565
10587 10638
9015 9107
29722 29801
31025 31088
11685 11706
16406 16411
17895 17988
10687 10763
20449 20471
8590 8668
7538 7626
13102 13174
6931 7026
12111 12151
30516 30582
11609 11624
22907 22919
24450 24500
9108 9180
25677 25728
12249 12316
29407 29450
374 443
10280 10370
9301 9333
16472 16516
28537 28613
5269 5312
21257 21334
4203 4235
17353 17415
751 775
10533 10579
3597 3677
14491 14508
30459 30479
9140 9149
17470 17520
3902 3971
13132 13145
13065 13122
11828 11876
10200 10276
13889 13962
8642 8724
19243 19297
15032 15104
29601 29612
2925 3021
22230 22326
5457 5539
2268 2362
26071 26106
619 622
26316 26412
28394 28416
9703 9712
14931 14944
12615 12618
28363 28431
21296 21315
5755 5798
9890 9985
27810 27894
22547 22591
13122 13146
14591 14619
27003 27064
15751 15829
15876 15973
10453 10497
2212 2272
2174 2214
31055 31128
8867 8928
7085 7088
8431 8471
25264 25316
29263 29285
22026 22047
20859 20872
22047 22057
19481 19485
31565 31643
19893 19900
21266 21310
4146 4246
9737 9774
18440 18484
18474 18554
13041 13088
5459 5472
8257 8293
28292 28340
13487 13519
7896 7960
6321 6388
15778 15790
6712 6764
7848 7912
9207 9241
23812 23879
233 272
31116 31144
15462 15517
16461 16463
16224 16269
15878 15881
19986 20024
14362 14377
7896 7993
14070 14089
12393 12403
10089 10094
3870 3872
12753 12759
11403 11413
15537 15546
549 576
15497 15569
7202 7250
17290 17310
18502 18536
31744 31785
3828 3847
2829 2908
6195 6254
1539 1627
5752 5831
15540 15617
8179 8235
15193 15223
5464 5491
15932 15954
9029 9104
619 657
30233 30267
28961 29040
15454 15517
8994 9086
18723 18798
29620 29650
14920 14944
25217 25303
20543 20585
23309 23398
21024 21056
2288 2314
19619 19712
2215 2287
26860 26869
27674 27756
17564 17621
1687 1727
26407 26476
13696 13706
25061 25074
605 700
7895 7913
31891 31922
25234 25249
17762 17803
15184 15200
11399 11471
5022 5117
20237 20252
21139 21150
17330 17406
22557 22577
27765 27829
29001 29026
21143 21212
22536 22548
29121 29126
17766 17776
27019 27108
7598 7633
30487 30516
19561 19618
10236 10318
21699 21737
11831 11911
9014 9097
19546 19603
9485 9552
15282 15374
20634 20697
27547 27549
31669 31704
13502 13588
14183 14219
9063 9131
4409 4465
6068 6103
51 122
23511 23524
18671 18712
23834 23921
8634 8728
13284 13287
23622 23682
9323 9375
31706 31785
22121 22206
25987 26045
21087 21140
31793 31890
1484 1501
5439 5485
26090 26126
19553 19589
4934 4994
25964 26003
16084 16130
7147 7225
2503 2536
31240 31314
29614 29650
19072 19107
28011 28086
209 220
10247 10307
20744 20768
17464 17553
21142 21238
13967 14066
29217 29276
26600 26683
21414 21473
24702 24737
16167 16173
15614 15617
18323 18367
14756 14820
25614 25623
13265 13359
4206 4263
18190 18247
12301 12320
255 341
26808 26882
16189 16260
4070 4157
20603 20642
17661 17677
18447 18476
12235 12256
9017 9070
8453 8541
20533 20589
9957 9960
6273 6312
31413 31490
29273 29360
10619 10690
26588 26640
23674 23688
28120 28149
22205 22268
24997 25086
23660 23760
10530 10621
5667 5687
28722 28771
19452 19543
17341 17412
29311 29367
16557 16607
25165 25215
18143 18155
11158 11250
26235 26253
1327 1383
20655 20671
9332 9376
9803 9834
3249 3333
24100 24119
4427 4509
13003 13032
13404 13440
8580 8617
5887 5934
6642 6725
1799 1841
24450 24513
2378 2411
9968 10000
22351 22379
29696 29734
12162 12193
26046 26125
25262 25293
19305 19378
9474 9505
13133 13181
25397 25492
30647 30689
14898 14993
20051 20059
18651 18665
24841 24875
29741 29827
5563 5618
30334 30382
28139 28211
6406 6467
13751 13811
7538 7634
21294 21376
14768 14795
1386 1462
3515 3549
24941 24985
28553 28612
21307 21319
14057 14071
28965 29051
3708 3791
25792 25858
9860 9886
21883 21938
24775 24791
25939 25959
4909 4931
24215 24254
7272 7346
31035 31135
846 853
29861 29926
12064 12105
23933 24032
31353 31435
15471 15516
19739 19837
4429 4488
18516 18578
17828 17920
28980 28996
4635 4653
17212 17258
23217 23221
30946 30962
12353 12373
15475 15535
20804 20898
19641 19722
26454 26538
26874 26923
28006 28008
6294 6338
20248 20290
26889 26936
23871 23927
5732 5755
4862 4893
21285 21379
14449 14548
26751 26787
615 669
22488 22517
6170 6253
2496 2558
12392 12395
29957 29994
15220 15235
12837 12913
9020 9061
14563 14625
16910 16991
30742 30782
2642 2691
2962 3043
27057 27074
24647 24707
4092 4127
5970 6010
27358 27409
839 845
14271 14275
14937 14994
22760 22767
17828 17917
19521 19618
2125 2205
6844 6914
12720 12728
23001 23081
21080 21095
27192 27204
15596 15649
16060 16070
23007 23018
30764 30848
15881 15956
17615 17668
29151 29162
1276 1343
24726 24745
21524 21589
19161 19223
4572 4663
13379 13390
11960 12007
15474 15568
14001 14007
15559 15579
14791 14836
11688 11738
27788 27819
9834 9908
24946 24974
934 1027
30416 30465
29994 30036
1801 1819
8255 8319
21992 22067
23428 23501
28544 28631
30980 30986
19632 19719
1497 1506
27558 27577
15095 15151
30828 30837
1908 1955
23789 23817
27623 27710
30827 30900
23092 23167
28126 28169
16997 17024
8002 8026
26579 26638
20777 20832
25435 25466
13235 13241
7370 7377
2635 2662
21316 21333
21283 21383
4313 4392
18667 18730
23552 23618
20158 20181
18481 18556
25274 25317
5969 6056
8501 8601
31542 31616
17680 17700
29673 29711
28958 29041
28139 28180
1296 1376
27436 27450
13550 13600
22262 22357
31102 31162
8059 8156
17058 17111
23622 23664
31017 31053
8758 8828
6387 6420
8029 8093
1279 1346
19533 19620
5948 5949
19767 19847
5815 5819
7542 7559
23030 23103
21964 22026
3620 3683
9480 9514
9176 9254
6975 6988
4128 4186
3952 4042
17559 17579
14751 14766
2595 2692
11848 11878
12356 12365
27212 27246
15463 15505
8718 8805
2120 2166
26632 26718
23742 23772
1149 1173
17160 17240
26003 26071
16382 16440
11134 11188
26916 26938
7417 7472
5654 5680
456 464
21328 21352
24437 24489
14515 14567
23053 23129
217 231
20475 20490
3992 4028
29403 29407
30658 30666
3166 3194
28552 28554
26892 26952
20354 20420
30740 30791
11478 11565
20191 20244
7013 7038
10403 10428
4245 4251
19630 19656
3721 3809
12706 12742
1895 1965
21579 21580
8319 8395
13924 13976
18410 18480
24811 24905
16774 16818
26430 26442
6090 6117
18890 18978
8561 8621
9069 9152
2925 3019
8538 8609
31 72
5534 5614
27973 28010
10010 10044
5791 5853
30739 30782
12731 12792
19477 19513
4074 4088
25199 25285
24514 24522
17389 17416
2119 2159
5398 5496
13830 13851
8859 8892
9544 9560
26170 26184
13750 13810
4036 4047
15721 15732
19072 19114
23288 23374
2476 2530
3151 3152
18756 18820
22775 22786
13524 13597
28835 28878
9350 9433
25232 25239
16682 16710
21660 21678
30827 30876
3749 3822
21990 22021
31761 31796
1383 1415
14854 14927
6394 6402
3904 3997
23814 23889
5893 5923
14130 14151
2860 2872
23885 23976
10406 10494
5092 5151
26776 26796
713 748
27494 27524
27208 27293
16556 16565
25134 25171
1203 1269
8817 8864
29232 29278
18083 18174
27895 27969
3044 3101
31339 31396
12966 12980
23624 23639
20174 20197
16291 16351
6042 6106
3507 3606
24027 24080
29756 29830
2785 2804
13108 13133
28332 28346
7034 7115
4273 4295
31802 31872
5103 5160
30422 30474
29553 29640
8159 8214
21016 21022
14603 14645
14022 14089
27313 27376
25783 25790
4010 4050
31797 31880
2342 2366
28522 28560
26207 26290
10096 10117
9638 9697
22140 22226
13258 13295
23607 23693
20286 20378
7703 7787
15112 15146
16866 16883
19436 19458
22811 22819
966 1043
10632 10707
1680 1734
13975 14017
16650 16655
24263 24345
2427 2524
993 996
25996 26014
2088 2112
5278 5301
21320 21344
12214 12285
31785 31812
13398 13488
14448 14457
19272 19298
22751 22832
28894 28915
30278 30318
5261 5324
28486 28522
4193 4251
25498 25553
19782 19848
28959 29018
21408 21472
15954 16039
1310 1364
4988 5038
27722 27819
9029 9082
26576 26665
16613 16638
22758 22806
4014 4047
19940 19983
29473 29531
25958 25988
28489 28570
10766 10785
1178 1265
15950 15992
18690 18706
10796 10844
3687 3769
1933 2024
23890 23963
23527 23565
29681 29758
3046 3117
30772 30788
25584 25675
26937 27000
31746 31762
15804 15813
16096 16175
709 754
17176 17180
1615 1670
6072 6158
24094 24150
20553 20584
21368 21463
11774 11782
28415 28457
6531 6575
23136 23210
20092 20115
13589 13596
2580 2617
2279 2339
21921 21936
6511 6522
6362 6373
9814 9846
17537 17600
23418 23466
25107 25204
4797 4831
25964 26064
4275 4345
22986 23021
30692 30774
2362 2381
7139 7223
484 511
11748 11791
15390 15450
22545 22549
13780 13819
1375 1443
12587 12632
15873 15948
6118 6198
18515 18609
5748 5828
5723 5772
27184 27213
16027 16032
4292 4316
18299 18330
8481 8518
13048 13108
16650 16665
13773 13856
22703 22784
7380 7454
23623 23681
8666 8759
3108 3198
19858 19930
19771 19852
10221 10230
10900 10926
14726 14826
26783 26833
18780 18806
26595 26628
16016 16018
14849 14892
2156 2203
1404 1447
3918 3969
20042 20139
2010 2011
8602 8652
7160 7215
9684 9685
20228 20247
14906 14947
7376 7391
7730 7803
5291 5377
7850 7948
7487 7539
137 214
2653 2691
31159 31209
8076 8169
4243 4264
21117 21152
123 223
19758 19778
14134 14138
31207 31298
976 982
15561 15647
14034 14070
31544 31614
18268 18297
15296 15378
27663 27676
23227 23262
18238 18278
13936 14017
11624 11681
20196 20270
4194 4290
9988 10025
8771 8790
31616 31692
11884 11951
5869 5910
17591 17639
16251 16327
12873 12912
12281 12336
25573 25585
837 898
13917 13986
24587 24677
14583 14677
10459 10497
339 348
3186 3248
2243 2284
2918 2983
11403 11490
17884 17885
23302 23384
31123 31168
27689 27746
12276 12303
19017 19020
25447 25525
22468 22474
20114 20198
18520 18610
28115 28203
17082 17107
1687 1734
4197 4227
15575 15667
12305 12349
4194 4268
5065 5142
12869 12925
19738 19766
6118 6158
2144 2223
20015 20105
1167 1205
21603 21621
29832 29899
6377 6399
3944 3991
16829 16859
25283 25296
5044 5074
12367 12399
22383 22444
1777 1816
19201 19231
27045 27057
25643 25675
2101 2199
28503 28541
20284 20349
27140 27177
23918 23931
31458 31541
23451 23544
4946 4989
13148 13229
27791 27883
26358 26418
11040 11093
21337 21375
4830 4860
8633 8718
15686 15714
15037 15122
23872 23880
7093 7099
11811 11888
9177 9258
22564 22616
27126 27222
27375 27382
12442 12534
5273 5305
22055 22107
13747 13777
8644 8655
13466 13522
4525 4562
26084 26127
6100 6131
4083 4108
1870 1962
23702 23767
27006 27096
19909 19962
15491 15497
26451 26484
4812 4881
11953 12000
16230 16281
19091 19156
5596 5655
17823 17875
7745 7822
19672 19759
5440 5532
24096 24149
29886 29959
23898 23917
23805 23830
24703 24750
6071 6158
17510 17534
4908 5007
19291 19363
10656 10667
24661 24681
23091 23141
15608 15609
28316 28342
287 343
12204 12292
3874 3973
5416 5428
14486 14532
10972 11009
31157 31195
1388 1408
24889 24962
28377 28416
23748 23830
24107 24112
5039 5088
9029 9047
29534 29561
29261 29284
12764 12802
26541 26548
16376 16385
19732 19821
6551 6596
905 946
26483 26555
20967 20968
17923 17988
27869 27876
14785 14881
28357 28378
7813 7909
8306 8366
11312 11407
22605 22627
14939 14953
17598 17600
31564 31636
21109 21209
20180 20185
7002 7021
22890 22922
5332 5373
6949 7022
21030 21119
6864 6934
12178 12238
25569 25665
2823 2865
1652 1662
5370 5462
5649 5701
19526 19617
12398 12412
6818 6872
20459 20465
11663 11682
25591 25635
8003 8072
11301 11364
26511 26548
7444 7447
13344 13387
27891 27964
7477 7571
2266 2284
23580 23598
24729 24742
3472 3529
10839 10843
23135 23215
13472 13491
30285 30338
795 870
3506 3532
27317 27406
16987 17021
22630 22633
25368 25411
6167 6177
7864 7869
12257 12259
25015 25062
5584 5635
7850 7901
5333 5351
14307 14311
15266 15365
3715 3747
15366 15437
28333 28432
26023 26083
28955 28996
15808 15898
5584 5597
15791 15845
6158 6257
19427 19486
342 440
31011 31099
9389 9394
1684 1711
15050 15064
16006 16008
18561 18622
20102 20181
28682 28711
30351 30417
29806 29852
17651 17721
29125 29204
22247 22297
9858 9925
14113 14135
17548 17644
21902 21950
14419 14476
13462 13542
16786 16877
18904 18975
22542 22593
11242 11282
19703 19710
3591 3689
31004 31013
5933 5958
5577 5607
12434 12527
24674 24692
14336 14374
24468 24532
17405 17484
14900 14938
26941 27008
29601 29668
11356 11439
17873 17903
31306 31364
1731 1782
1393 1429
5008 5040
7427 7477
13526 13570
6251 6290
17320 17420
23122 23192
9938 9955
25667 25758
27793 27812
13395 13486
8581 8648
13762 13839
31761 31830
11819 11874
16101 16170
16405 16429
13281 13336
1909 1968
12558 12647
24595 24609
11504 11507
28494 28592
3793 3850
23839 23902
31059 31071
25096 25169
13812 13816
15520 15581
20419 20495
29304 29372
17151 17212
10274 10347
14282 14345
18148 18228
3259 3285
25367 25373
23939 23997
3473 3488
12872 12952
22069 22108
27660 27731
3318 3367
18380 18463
7029 7035
29058 29060
17286 17335
215 233
9649 9707
23471 23548
5920 5976
27215 27219
31462 31533
334 369
2086 2118
21006 21078
31503 31529
13555 13643
2334 2405
4371 4372
11686 11737
31888 31927
22286 22352
1630 1649
10180 10202
17312 17374
28000 28047
7013 7077
2782 2810
7402 7448
31355 31430
21035 21042
292 392
9707 9806
29419 29424
26871 26913
21891 21990
28121 28140
11828 11830
2731 2767
8513 8585
29264 29287
4158 4185
2237 2274
28222 28287
8852 8895
19302 19388
14792 14845
5583 5584
30075 30152
12845 12880
21965 22050
31042 31061
9967 9980
2437 2494
25855 25886
2299 2381
21789 21793
31169 31256
17473 17519
5683 5717
25397 25416
6953 6973
13117 13183
29525 29560
17621 17660
25885 25944
30741 30836
1538 1585
26637 26672
27634 27679
6337 6394
22185 22274
14346 14438
30808 30842
2309 2313
26062 26113
6746 6752
20330 20381
3841 3936
23266 23338
4305 4345
30815 30906
7283 7315
24775 24856
24342 24380
9946 10043
16514 16570
3819 3917
19398 19410
5846 5936
11329 11342
21258 21358
23610 23690
6456 6523
15804 15883
2956 3007
15089 15166
6905 6966
10677 10720
1154 1243
6294 6311
16893 16952
9721 9783
11850 11929
10405 10436
8057 8148
12120 12187
20169 20200
11702 11757
25355 25427
22840 22885
17741 17815
3934 4021
14431 14444
13010 13078
24073 24075
703 710
5000 5093
12295 12394
15927 15994
17829 17887
10215 10306
13267 13319
20695 20751
27730 27815
26050 26135
7785 7799
21771 21781
13800 13848
2666 2675
27368 27405
27929 27945
28779 28863
11790 11866
27571 27655
18698 18762
1128 1168
2094 2153
356 398
21733 21790
25408 25476
6566 6608
26475 26572
2195 2286
16650 16729
1881 1907
11836 11906
12123 12219
8735 8798
27787 27887
3884 3905
23811 23848
8766 8832
22466 22544
31974 31977
23181 23260
15444 15483
13924 14017
15747 15840
11160 11179
9442 9481
27353 27408
29501 29580
9051 9121
11781 11782
28513 28588
26572 26578
3915 3932
18204 18269
31106 31156
15707 15798
25939 25973
1551 1626
16150 16155
17435 17530
5814 5871
14138 14165
15354 15358
24447 24512
20113 20143
6126 6222
6494 6519
29970 29997
28658 28661
31900 31909
4787 4876
28139 28192
12440 12534
30266 30325
18376 18461
8308 8346
13701 13786
15157 15254
13762 13782
15706 15745
16985 17071
3251 3341
21414 21475
8689 8747
13318 13325
1281 1308
26858 26886
11975 11988
5821 5876
26295 26348
14407 14443
9788 9845
16089 16181
29036 29109
23531 23559
31229 31249
30566 30615
13308 13332
17240 17316
15656 15668
14917 14927
31362 31373
10449 10493
2050 2138
28404 28461
23261 23263
10362 10373
2404 2480
22264 22335
12263 12349
24840 24902
7082 7146
26081 26086
16189 16288
10783 10814
26207 26267
18159 18171
26804 26807
18498 18516
7029 7127
23902 23941
25189 25221
20078 20143
11302 11325
26188 26272
1114 1121
29776 29862
12661 12691
7740 7754
8417 8420
4380 4455
17991 18052
29503 29546
381 462
3590 3652
809 889
25025 25106
21099 21189
2390 2431
30634 30726
14821 14855
16860 16882
27422 27477
22366 22403
4754 4830
3517 3553
9368 9416
1657 1700
16414 16493
13866 13905
23313 23387
22289 22330
25484 25489
17018 17052
21135 21210
23546 23587
123 187
1776 1808
15868 15883
11594 11669
7335 7368
10 27
14080 14161
20852 20949
3349 3380
18032 18118
16252 16299
15366 15417
11990 12061
3967 4009
21149 21243
18187 18283
19056 19115
11135 11189
2197 2199
20746 20843
30694 30760
13421 13501
15854 15950
24226 24307
7771 7827
12652 12699
25993 26054
20941 20987
28254 28337
21970 21973
20268 20282
11706 11751
5582 5625
21210 21231
2496 2538
27218 27240
19041 19138
12273 12346
21026 21030
25426 25443
8140 8187
14501 14565
9121 9209
16910 16939
14987 15069
51 77
13327 13368
2251 2297
14660 14742
25276 25358
9850 9903
9410 9445
5586 5677
14089 14151
12931 12938
7102 7196
7917 7958
25350 25441
27223 27314
14173 14239
1899 1951
12234 12267
4163 4237
20969 20988
30251 30333
1604 1704
26346 26389
10719 10805
16543 16593
21393 21420
15906 16005
16902 16968
3564 3578
31975 31976
22884 22908
24628 24719
11702 11719
21541 21602
5610 5612
4011 4063
29318 29407
9469 9525
31070 31080
11544 11635
7121 7140
21709 21773
31286 31349
7473 7527
16541 16625
6149 6231
11692 11721
29173 29176
28107 28149
7996 8062
7506 7509
16524 16621
13821 13912
29144 29188
12107 12151
25284 25316
21531 21613
19559 19644
5407 5482
28465 28507
29308 29314
644 681
18231 18274
9708 9774
27824 27856
622 638
8687 8734
28657 28730
10719 10734
25903 25978
30543 30568
2337 2393
983 1049
4467 4484
21605 21703
2526 2609
17329 17410
21235 21318
12086 12175
13129 13139
12565 12598
13443 13540
16987 17082
11558 11621
7975 8006
14018 14095
28465 28487
22102 22178
7690 7727
14957 14960
12217 12306
13304 13396
13061 13107
26694 26750
3846 3930
23336 23367
9040 9071
13482 13491
17244 17341
1376 1394
18549 18596
24764 24854
20959 21057
4976 5046
861 862
10552 10554
14578 14671
17448 17500
9967 10048
24795 24801
13095 13130
25228 25318
4960 5013
16763 16832
3292 3387
3257 3309
16404 16417
10415 10489
110 113
359 441
28709 28714
31775 31863
11023 11072
4606 4617
26509 26516
8312 8410
4419 4456
4702 4717
13038 13106
24310 24319
9969 9990
23354 23400
498 517
4242 4243
31003 31084
26649 26672
4443 4481
8151 8201
24890 24972
29426 29509
10146 10229
19018 19031
15405 15485
12657 12754
6982 7065
22145 22221
17110 17208
4811 4858
26793 26890
24520 24580
27727 27791
7244 7312
26275 26304
14202 14296
24513 24525
19558 19605
29340 29352
19687 19736
28637 28677
4991 5086
17504 17552
13292 13326
13550 13589
19780 19847
16251 16269
10522 10578
9365 9441
26542 26599
25415 25462
13451 13492
19230 19277
31650 31698
17552 17587
22091 22108
3703 3791
2603 2636
4315 4367
17775 17836
29126 29175
13406 13489
10832 10927
14522 14532
4004 4035
9943 10040
22075 22076
18422 18450
27376 27463
27349 27446
29242 29276
23005 23051
5187 5269
27391 27491
16126 16152
8616 8669
6674 6696
27840 27879
13497 13577
9792 9849
16731 16764
11843 11903
29465 29508
26640 26648
12285 12306
1305 1374
15872 15906
4202 4282
10676 10750
6255 6306
30649 30689
7840 7858
26030 26073
10230 10274
20207 20273
18608 18656
29629 29708
23644 23729
21798 21861
20626 20673
10295 10325
13166 13173
17902 18000
28455 28532
6757 6759
27091 27098
18594 18599
22470 22554
16030 16119
4723 4796
19922 20011
16242 16294
1788 1843
5742 5817
30283 30376
31905 31935
2743 2829
27580 27597
4793 4823
15537 15551
21014 21114
18799 18853
7671 7746
12529 12619
10508 10534
24469 24533
26605 26628
26966 27016
29291 29328
15535 15633
15130 15136
13001 13057
11962 12012
10195 10268
3007 3082
30222 30302
26035 26124
7278 7322
18592 18633
19041 19136
20302 20314
19617 19643
15215 15298
28056 28097
25224 25316
15422 15513
25552 25567
29434 29474
5291 5365
23661 23675
4 24
26284 26365
3403 3485
19425 19519
1068 1105
4029 4100
1249 1342
5313 5341
17714 17739
13784 13824
7674 7753
803 855
7759 7833
3732 3743
23063 23066
3625 3668
8246 8336
6496 6536
7707 7788
19138 19227
25810 25848
10516 10523
14182 14191
29708 29716
27063 27109
27423 27498
3727 3773
75 123
28963 29039
3416 3433
18616 18686
14737 14768
1192 1244
22631 22725
6530 6612
3318 3394
28528 28585
2526 2531
938 1026
13949 14018
29222 29305
1248 1341
17468 17501
10636 10647
21374 21431
17008 17027
18285 18383
26643 26657
9304 9319
15463 15560
8460 8528
1861 1931
1933 1983
25084 25170
8354 8405
8183 8262
3153 3168
12531 12584
29984 30053
30885 30923
6203 6295
18035 18129
25406 25410
9994 10085
24044 24070
6766 6782
31083 31098
13666 13717
27738 27751
12210 12294
28265 28273
31562 31634
16816 16875
27546 27579
31361 31435
28221 28312
29660 29758
29018 29053
20316 20409
437 468
29872 29946
3312 3348
4984 5072
6632 6697
20652 20734
10930 10982
29506 29565
8232 8280
3173 3247
29567 29592
20683 20744
3042 3142
2958 2989
25481 25532
24349 24409
2621 2686
4248 4337
28876 28934
29750 29794
13657 13680
16385 16419
21267 21321
21916 22012
23342 23413
16184 16246
18866 18903
6038 6068
20746 20804
22306 22395
3842 3936
22194 22285
13634 13674
28229 28325
21965 21996
4640 4642
11651 11739
28245 28317
24328 24329
3041 3114
6811 6872
12717 12808
4511 4585
19732 19757
16916 16925
25941 25961
30132 30203
1805 1879
21491 21530
27147 27229
3217 3301
14478 14523
28159 28160
1885 1891
579 627
2475 2525
15013 15066
13395 13422
10188 10264
3398 3424
4999 5070
1985 2052
23553 23612
13102 13144
16280 16316
4403 4467
4091 4125
15072 15131
16620 16693
25212 25279
19504 19604
13796 13860
9753 9813
8171 8271
26156 26165
8143 8196
29765 29859
3602 3682
9443 9461
733 823
11461 11485
19769 19771
173 272
11318 11337
16745 16788
6251 6336
30941 30951
30151 30194
16992 17036
1321 1401
500 538
7365 7427
31426 31464
27317 27362
22135 22232
6347 6426
13496 13532
22019 22095
8049 8137
9115 9179
29245 29337
30023 30027
25724 25747
13687 13767
23688 23696
14117 14170
18304 18322
7462 7537
7193 7196
22653 22717
8968 9004
8593 8629
21845 21889
8927 9006
21306 21307
15362 15461
15831 15870
6553 6637
3691 3767
23554 23588
9805 9900
20832 20852
13658 13752
15834 15915
11276 11306
20132 20188
22277 22342
19119 19169
28970 29032
27267 27288
10528 10558
5958 6053
27213 27261
22863 22864
5675 5768
23900 23931
12303 12392
12739 12837
25645 25647
8877 8909
26886 26888
3280 3333
27397 27402
18573 18655
20332 20377
12812 12838
19301 19356
21799 21886
11104 11124
22978 23025
17514 17605
11875 11934
29143 29159
30113 30134
6352 6421
27993 28041
30235 30275
4618 4623
30665 30734
20604 20656
6390 6479
14334 14369
4213 4263
8787 8866
4213 4310
31920 31948
2044 2122
17624 17698
19286 19327
2227 2264
12865 12878
19577 19590
22534 22542
9670 9747
15416 15475
7860 7910
22607 22634
1608 1613
26848 26924
9817 9854
4252 4315
27714 27781
27100 27151
8297 8397
30692 30761
3354 3364
15269 15310
27028 27106
29992 30002
20960 21009
5986 6055
27989 28019
1443 1481
25407 25413
29793 29879
4790 4884
1933 1975
5382 5384
9519 9618
16044 16065
8323 8371
28768 28787
24651 24702
30746 30805
7821 7910
26012 26030
3711 3792
1640 1652
28359 28397
25503 25531
28633 28659
6603 6654
12964 13063
8948 9036
3135 3235
10013 10104
18139 18203
26742 26801
29096 29130
12128 12166
233 264
29349 29443
18928 18999
10462 10544
21816 21900
22673 22745
15956 15984
29155 29225
14059 14098
3436 3529
6787 6812
24351 24380
23103 23149
26549 26592
25691 25760
17574 17635
12437 12498
20494 20500
6972 6975
9103 9193
21275 21350
22687 22744
25345 25364
23343 23425
6926 6934
2869 2873
28308 28343
30207 30226
11173 11235
10464 10559
20521 20547
30481 30523
10646 10692
5969 6065
28179 28212
17211 17265
27198 27248
16321 16339
3387 3401
5068 5150
18279 18371
6269 6288
20536 20614
31729 31738
27312 27334
9759 9818
28673 28740
3249 3308
18070 18162
9301 9324
23886 23893
23435 23490
1043 1131
11345 11351
1669 1689
23227 23260
3826 3844
29662 29719
9304 9403
2067 2082
13481 13555
8708 8800
10232 10276
17274 17330
18918 18965
7010 7071
8427 8490
17423 17466
25275 25284
537 621
16777 16811
31718 31778
8280 8334
10069 10118
29452 29480
11368 11386
639 649
8584 8652
30284 30382
26956 26999
22405 22504
24623 24723
5139 5166
21824 21854
15351 15424
25667 25702
22295 22338
17441 17498
5351 5360
29516 29558
28813 28901
2781 2846
12750 12810
27661 27736
2916 2978
19693 19789
30739 30815
8659 8704
14359 14377
28286 28382
7735 7818
17508 17564
811 836
293 374
25751 25783
27024 27124
28224 28317
16454 16521
2771 2868
5212 5230
11211 11272
15884 15938
7131 7178
18645 18662
13421 13466
29458 29543
31885 31966
19836 19894
7910 7960
1173 1230
29189 29201
22618 22620
25522 25569
29536 29538
12667 12699
25510 25528
19259 19268
4927 4953
3793 3817
3103 3156
20662 20668
18987 18995
14265 14313
29424 29495
12177 12254
9979 10053
377 456
21321 21364
27541 27586
20174 20188
13396 13414
29831 29841
144 153
9221 9303
1936 1992
23556 23562
31417 31510
23523 23565
2334 2342
28044 28081
23201 23258
17610 17696
13027 13031
13157 13188
18117 18189
31519 31531
920 969
8445 8492
20164 20226
7770 7804
30530 30573
18024 18109
6713 6741
4554 4579
14471 14488
27564 27593
15964 15979
5848 5948
5147 5241
22086 22090
11718 11788
28200 28259
626 720
9767 9811
30154 30222
20506 20597
23544 23592
25817 25872
29208 29282
22385 22388
4477 4561
20854 20880
29940 29987
6552 6569
21318 21390
9287 9294
5919 5947
13197 13220
30651 30687
29678 29718
590 660
356 454
19126 19147
13131 13193
24653 24705
18289 18376
30836 30866
7658 7728
21436 21470
3850 3899
6691 6714
22551 22590
28271 28363
26872 26928
11789 11859
4770 4785
21871 21874
28530 28599
18796 18871
11305 11367
23699 23700
11725 11789
15323 15385
1559 1632
17350 17443
11454 11483
19291 19310
17718 17766
29923 29956
5185 5199
2315 2325
17128 17156
25394 25459
19240 19297
9081 9122
28673 28768
25994 26020
15156 15215
24709 24809
25146 25184
13582 13590
4072 4102
6139 6188
23622 23693
27022 27112
5099 5193
13503 13589
29839 29865
7558 7583
7695 7752
25501 25567
18572 18669
185 281
2042 2082
14767 14849
14002 14062
7029 7056
13417 13486
27260 27275
14099 14138
4718 4781
12573 12607
9627 9671
14989 15037
29761 29774
22108 22112
24580 24591
7337 7429
11921 11968
2843 2857
22273 22334
8716 8739
27589 27653
200 299
31679 31718
3985 4055
13159 13182
6568 6578
3959 4003
17664 17690
26404 26431
19688 19762
11842 11895
30304 30398
31853 31933
9022 9051
5000 5007
26873 26875
10162 10163
14130 14148
17417 17472
17117 17193
7492 7494
23045 23087
26773 26835
27948 28027
28882 28911
14648 14729
9812 9897
3809 3818
31626 31687
5040 5114
1719 1722
31056 31118
18645 18727
1921 1981
31499 31512
22330 22386
7867 7868
26967 27056
29342 29434
12928 12946
5595 5643
14197 14281
26011 26028
13188 13222
15890 15914
355 433
4207 4256
24855 24917
21938 21957
31283 31287
9947 10027
29459 29463
3432 3516
8292 8342
11941 11981
12691 12736
21942 22020
18547 18627
20964 21036
24778 24834
22292 22358
29431 29444
21235 21297
20854 20900
21938 22026
2924 2991
1785 1823
25342 25442
16335 16417
13984 14050
23841 23872
12323 12376
16321 16400
20910 20916
4194 4284
13913 13964
25484 25535
23727 23814
14576 14647
8639 8693
21544 21577
2559 2567
9038 9124
5814 5831
5726 5818
20001 20019
3318 3321
5908 5932
24129 24205
7495 7537
2224 2250
28930 29018
1111 1119
3706 3760
27005 27030
18796 18809
24656 24717
12897 12922
18726 18761
7710 7730
27751 27827
27305 27333
1643 1653
28534 28566
17766 17826
21512 21518
26578 26629
31165 31191
21822 21855
14826 14830
22295 22380
26912 26955
4168 4215
9649 9707
2876 2891
12868 12930
11561 11623
29857 29915
23091 23115
28286 28328
2631 2719
3175 3235
9779 9832
22954 22968
1267 1351
31550 31620
13220 13250
17571 17623
29984 30013
25526 25614
14509 14579
12122 12210
15302 15344
14619 14629
24935 24965
26249 26256
17121 17203
13694 13696
29351 29384
15632 15725
14092 14182
21339 21365
29552 29606
16361 16402
12999 13012
22239 22274
27651 27712
5308 5341
2125 2202
25550 25579
13449 13478
20510 20584
4635 4664
11279 11354
19817 19827
29536 29628
7949 7990
8654 8739
22066 22131
25866 25867
25112 25181
18499 18559
1322 1385
1264 1287
176 266
3613 3711
11906 11945
18156 18235
5572 5657
11142 11202
28701 28717
30001 30035
27482 27576
10955 10957
22534 22622
25672 25685
11221 11255
26016 26083
7548 7616
17824 17899
6605 6676
10767 10810
28579 28672
3271 3319
29329 29395
21493 21573
24525 24527
23365 23394
22343 22417
6703 6775
15730 15796
4368 4418
13226 13236
17502 17599
7352 7434
17824 17920
19559 19636
5974 6002
24741 24780
942 1041
22305 22364
11542 11640
24814 24846
24961 25043
7179 7247
31359 31389
3427 3479
23536 23610
10024 10088
22669 22703
10756 10785
5101 5185
6189 6218
5195 5255
10667 10707
13254 13294
27900 27914
7502 7519
90 176
27127 27210
29638 29669
17384 17438
4400 4420
25764 25801
13514 13543
226 229
12787 12833
24490 24517
30640 30655
17390 17476
13629 13707
19294 19363
26510 26556
28584 28666
1878 1939
31199 31218
10370 10453
18240 18299
22421 22478
26637 26722
4594 4598
29884 29950
25463 25550
1828 1832
30064 30149
12521 12613
13903 13949
7148 7223
31536 31573
22998 23075
2702 2770
15511 15573
31022 31030
16386 16390
14264 14330
18743 18795
29164 29218
24356 24387
13813 13836
6607 6667
17548 17554
8759 8815
5901 5941
25374 25408
27955 27984
24083 24118
31402 31480
14243 14303
19285 19371
17703 17768
3666 3729
6121 6130
17350 17393
23856 23893
26691 26722
27417 27440
20434 20532
12472 12507
21639 21671
23423 23474
9665 9668
8544 8548
11205 11227
11681 11734
27397 27443
23509 23599
23991 24024
15363 15427
3580 3668
22619 22651
2889 2981
645 669
2137 2213
24316 24340
5450 5463
10083 10149
23340 23347
11612 11646
24256 24297
11985 12056
2182 2243
7459 7548
3306 3375
9790 9871
2754 2847
26123 26145
18379 18389
27438 27516
620 709
28564 28645
13417 13452
2751 2774
21192 21279
9808 9907
20894 20966
4803 4865
26102 26154
26323 26352
2197 2266
7298 7384
27584 27610
3391 3432
11998 12015
17944 18009
14843 14873
26489 26570
14626 14666
19826 19857
12429 12461
28656 28746
24452 24494
12785 12823
14619 14699
25876 25967
26249 26268
26789 26862
19783 19879
4449 4485
27580 27616
11312 11344
4768 4795
4365 4376
19167 19228
16706 16773
31265 31335
14679 14689
3267 3336
27577 27658
4192 4239
893 965
26047 26145
24158 24256
10059 10110
319 389
21961 22041
15690 15782
19354 19408
29464 29540
14122 14144
13790 13860
8910 8981
27402 27485
30674 30736
9828 9861
24282 24375
27145 27228
25179 25255
20305 20392
22125 22207
11024 11045
24979 25032
8227 8248
4564 4586
26062 26160
27577 27614
475 523
29574 29619
15346 15390
29011 29032
17187 17194
1351 1354
5406 5461
24230 24241
5129 5158
8690 8708
9588 9673
11468 11519
31071 31135
27358 27443
31430 31440
620 631
31162 31235
10468 10510
8036 8081
25612 25647
12303 12380
14860 14958
13451 13480
787 841
1528 1606
11466 11496
18035 18107
29265 29323
31371 31400
19696 19731
3843 3910
11335 11374
1247 1329
21804 21857
19995 20050
24814 24900
22824 22911
9269 9312
18050 18115
5433 5478
1400 1455
1165 1195
11387 11394
7207 7258
21275 21366
2541 2549
14575 14608
18809 18817
31129 31209
30792 30803
18747 18804
7953 7996
13398 13441
18039 18082
2981 3020
1756 1772
29643 29690
5496 5565
13669 13701
11126 11221
13931 14021
21852 21929
23897 23990
23128 23222
18209 18244
29644 29731
20814 20864
29364 29434
13673 13690
3631 3672
1014 1054
26343 26433
16157 16162
13171 13213
1904 1908
19863 19912
23489 23521
20591 20649
9084 9128
1378 1442
20881 20964
3571 3666
27721 27771
24383 24402
22299 22349
17507 17532
29923 29999
28778 28856
19838 19886
5901 5981
2114 2209
21250 21310
1095 1183
30719 30726
28410 28411
3645 3722
2546 2568
26782 26871
25992 26077
1347 1379
6924 6969
8128 8149
28483 28551
31648 31732
4587 4644
22396 22455
25325 25418
12125 12191
26900 26995
13197 13219
29147 29240
25014 25095
23603 23624
6489 6551
19148 19152
9591 9636
196 268
12954 13048
16466 16519
2538 2539
31301 31384
30369 30461
3557 3561
30322 30419
22050 22107
17986 18024
7569 7635
5572 5587
17450 17459
2904 2954
27713 27780
11452 11532
3762 3829
30445 30499
30646 30731
14035 14051
1879 1918
22528 22562
13837 13882
26679 26751
4696 4737
24045 24079
8950 9030
22405 22415
14484 14568
5236 5264
25212 25264
10264 10318
20274 20304
20063 20111
28795 28827
19724 19726
11220 11226
16586 16669
22186 22238
25032 25033
25984 26066
3337 3366
31562 31574
1597 1682
14105 14115
27698 27710
2168 2219
18366 18437
21376 21405
30270 30335
17690 17768
14191 14216
27221 27250
23253 23327
11629 11706
26214 26300
10064 10142
16823 16905
26680 26735
6236 6288
16711 16725
13500 13560
30104 30177
25090 25118
11721 11817
6525 6560
21101 21126
1023 1065
18782 18802
14242 14326
14189 14273
8065 8083
10084 10180
22463 22555
26578 26593
12408 12420
23701 23792
26851 26919
5543 5586
28775 28787
28955 28984
15290 15317
15802 15888
24805 24905
19799 19853
18261 18292
14888 14945
21418 21498
16193 16259
3218 3318
16527 16544
5197 5256
5471 5472
28965 29041
2009 2109
4756 4856
15725 15816
20026 20078
27568 27662
11124 11161
1173 1249
25022 25096
15751 15844
30111 30155
19539 19623
31050 31138
30802 30901
10690 10764
29422 29490
6052 6112
14026 14125
1369 1430
11682 11694
9193 9256
3170 3265
22564 22645
30801 30894
17237 17249
3802 3807
6978 7051
12269 12282
10919 10994
24676 24692
3953 4038
1323 1364
21116 21128
11950 12003
25474 25561
28253 28303
2384 2436
2712 2762
17583 17662
2616 2699
15063 15085
29856 29878
19534 19614
786 812
2423 2462
17134 17230
30459 30466
18988 19067
19803 19829
6834 6860
2749 2825
19667 19713
5983 6026
155 209
31416 31490
13870 13939
6558 6647
25582 25617
3480 3559
19612 19654
17317 17370
19255 19277
19342 19398
24258 24333
23612 23654
29358 29378
18154 18160
14896 14920
11739 11801
8478 8573
15198 15280
12709 12799
16310 16375
25989 26037
23257 23326
15358 15426
11629 11689
4425 4480
9999 10020
7345 7413
31064 31143
3858 3923
19340 19407
6399 6498
2426 2443
30266 30327
8828 8902
17846 17854
3343 3370
7915 8001
11014 11087
24985 25072
8634 8710
11729 11760
10828 10884
15459 15501
25684 25754
23669 23751
18955 18974
11639 11664
9818 9853
13106 13141
21206 21292
8991 9016
7681 7747
21195 21262
27898 27981
14454 14478
16606 16642
25252 25329
31228 31306
24812 24830
7995 8059
31128 31213
30645 30728
9077 9173
18688 18743
9584 9673
30227 30248
22855 22938
22346 22435
28667 28764
8058 8113
6725 6770
28818 28904
6082 6093
17597 17670
4614 4675
27520 27547
9571 9645
5061 5109
2172 2222
30810 30843
17286 17371
14793 14839
25148 25214
25362 25380
2164 2239
14642 14651
17760 17816
23542 23634
20302 20341
13334 13426
13077 13149
22783 22821
15333 15376
21850 21919
19387 19448
957 1000
10797 10874
18801 18895
6582 6680
11753 11845
18524 18612
15799 15831
24520 24522
28054 28087
15001 15063
30837 30887
5410 5508
13307 13402
17750 17826
1662 1727
18183 18229
28901 28971
5704 5713
23149 23213
14868 14912
25542 25606
3582 3598
12677 12756
28965 29038
22626 22630
10262 10330
19504 19533
25825 25846
3616 3623
27158 27205
26144 26166
13019 13084
7417 7435
26592 26606
9736 9756
26715 26724
31752 31757
20174 20202
7425 7491
26057 26152
4531 4547
3173 3209
25736 25812
15534 15604
15234 15237
30893 30915
17945 18036
11357 11371
6280 6287
11048 11067
25460 25552
11837 11875
12407 12506
12137 12222
3191 3269
3756 3793
20043 20139
31820 31858
928 932
4747 4755
22682 22708
25292 25348
28713 28802
13658 13691
16260 16329
1657 1697
22220 22297
28943 28962
30531 30578
28306 28344
4124 4188
7025 7034
4436 4521
15289 15323
25480 25572
16673 16717
17486 17521
15690 15785
15097 15196
13383 13483
13133 13189
18005 18087
16915 16950
1745 1823
6146 6211
30517 30546
15372 15412
9822 9881
5982 6024
9664 9741
20791 20874
3527 3552
8168 8170
16422 16498
30746 30813
28993 29030
21672 21705
24679 24721
27441 27534
6953 7036
4276 4362
21605 21693
11083 11169
11110 11189
25956 25996
16032 16041
5258 5346
6517 6555
20252 20272
18827 18853
2307 2316
7949 7953
19650 19731
27264 27273
8699 8743
18278 18321
10945 11002
13408 13449
30406 30455
2848 2947
18630 18698
12480 12541
30281 30362
27854 27866
262 353
23237 23302
17429 17432
18710 18712
1839 1935
8346 8406
12585 12631
2430 2436
29176 29217
26761 26860
17489 17530
2000 2091
19279 19310
18093 18153
20256 20260
30751 30769
7721 7760
6991 7091
4760 4854
26741 26814
12015 12107
23511 23576
28001 28024
15123 15185
14993 15011
27500 27567
13481 13520
18524 18591
16175 16223
28957 28974
28585 28648
3417 3480
23152 23251
20422 20452
21950 22042
22500 22599
14951 15048
9345 9428
12841 12905
9065 9107
5418 5499
22459 22498
28530 28618
23381 23462
14593 14650
18158 18197
13664 13695
23063 23064
12078 12102
26870 26917
31646 31720
21448 21453
24418 24472
7435 7499
22008 22033
25968 25983
22476 22516
27477 27479
9785 9881
12535 12561
4805 4813
31782 31803
30892 30938
31901 31921
21023 21104
30667 30697
29497 29579
45 98
7193 7215
4365 4414
15397 15422
4543 4638
9190 9213
3388 3418
1394 1431
6944 6979
26084 26152
28914 28963
8667 8677
29142 29196
17511 17566
13152 13204
12151 12174
23755 23804
11046 11123
27721 27791
17908 17960
4502 4534
21584 21653
16030 16121
16505 16557
20570 20655
6706 6727
9641 9740
4388 4482
6996 7070
18065 18110
28659 28732
9257 9327
23038 23075
4753 4762
18091 18139
23439 23496
14554 14574
4679 4716
12236 12277
5268 5314
28374 28463
19942 20007
15049 15088
12454 12485
14673 14767
24209 24274
12523 12569
19462 19523
17353 17356
6086 6110
21059 21155
26889 26947
16411 16503
16501 16599
11844 11873
14830 14922
30316 30321
28066 28080
31224 31251
28262 28284
30386 30454
22465 22510
5083 5097
10417 10418
19163 19236
17820 17865
27212 27229
24155 24193
16783 16805
4073 4114
11689 11782
29339 29365
19358 19386
10352 10449
21251 21263
16211 16245
25346 25435
16357 16390
23673 23685
14769 14829
1927 1942
27727 27735
4135 4141
12137 12182
15382 15406
27417 27486
17608 17670
1945 1995
13460 13557
27073 27133
21217 21250
5701 5798
27762 27855
26410 26498
30629 30692
2167 2241
28109 28145
8581 8648
24416 24463
20733 20828
4918 4973
3558 3561
12435 12490
14795 14829
23585 23673
27502 27565
12209 12228
27127 27137
26847 26902
26145 26235
29288 29371
7257 7300
25167 25251
14155 14245
9638 9653
16840 16907
3104 3113
26518 26595
20008 20092
23039 23050
21692 21713
9915 9999
16309 16400
15891 15925
4810 4901
6087 6118
1691 1725
9562 9610
19222 19285
18388 18464
360 367
20649 20672
15323 15366
9163 9211
14824 14904
4742 4797
21582 21596
606 667
4389 4488
864 923
5759 5778
28055 28096
22115 22194
22757 22815
15557 15641
22253 22340
4187 4213
29263 29338
1994 2060
21734 21775
11299 11307
26697 26786
30777 30839
5186 5216
26021 26119
15218 15273
17685 17764
15835 15898
10178 10256
3211 3294
11932 12001
1819 1912
30223 30225
25660 25741
3554 3582
12558 12601
2613 2637
6516 6580
22776 22825
15133 15223
19185 19276
9084 9102
19387 19437
2662 2682
4529 4621
10387 10421
2122 2173
10670 10704
17364 17440
31548 31549
22029 22057
9471 9498
11914 11940
16163 16224
31849 31866
24536 24560
19279 19283
672 698
5390 5477
4871 4950
12816 12869
744 807
28899 28974
15394 15431
1510 1566
29640 29674
12441 12519
17309 17367
31349 31423
24595 24596
13273 13292
4477 4484
30702 30730
1195 1294
19216 19279
15796 15797
11688 11741
19744 19806
24037 24040
23576 23597
19559 19577
27645 27664
10813 10820
17908 17996
22069 22167
25777 25825
3319 3344
31045 31046
26851 26870
14862 14959
25390 25453
5777 5810
10792 10847
9847 9910
309 324
19801 19897
13409 13509
26276 26312
6169 6229
2103 2167
10220 10311
6667 6670
23260 23282
29325 29388
14126 14225
6884 6904
5435 5526
18147 18164
20779 20863
2514 2553
19489 19493
29658 29720
21959 21966
19244 19250
4533 4630
1731 1751
22953 22963
11228 11238
15372 15383
29403 29440
31925 31981
31473 31482
21874 21937
9243 9325
21294 21325
22208 22213
350 429
23729 23738
21107 21116
25257 25348
28927 29021
25628 25710
24415 24496
12418 12472
2925 2935
6365 6425
24647 24692
7839 7885
26230 26243
8399 8450
24989 25044
22387 22401
6666 6731
13602 13622
19751 19795
24029 24122
23376 23418
27629 27695
11753 11848
8202 8261
26197 26247
8296 8354
1690 1773
8194 8248
19027 19118
21954 21988
13509 13588
13514 13577
23209 23212
19864 19930
27792 27805
20269 20323
12903 12951
2571 2651
15119 15126
21538 21629
14457 14537
28284 28333
5452 5508
1749 1845
17789 17851
1242 1277
1505 1595
31049 31134
19754 19802
8098 8108
24125 24209
11689 11747
7530 7565
18290 18313
1658 1695
4387 4442
9980 10045
4413 4453
15331 15345
14712 14787
25038 25044
2599 2646
4626 4669
7454 7513
15075 15149
16893 16898
20650 20739
21001 21030
2282 2322
23620 23701
3520 3595
29712 29810
8041 8126
11769 11800
11726 11799
2297 2333
28298 28316
27362 27415
7517 7576
28188 28189
12944 13011
29833 29928
30266 30295
31913 31945
9182 9201
8399 8433
21853 21924
3472 3481
20912 20945
6439 6450
8037 8051
8715 8779
93 104
21866 21894
27829 27851
11714 11782
2134 2164
7504 7519
2871 2937
21138 21210
25253 25293
3462 3515
26806 26852
16628 16641
13866 13888
17508 17566
18660 18746
7175 7258
25947 25959
5448 5484
20209 20294
29492 29550
20420 20502
15494 15584
17362 17393
22386 22480
520 608
16645 16742
21528 21609
25142 25223
1176 1254
19063 19108
26995 27095
27890 27951
16382 16446
6442 6476
4308 4370
17982 17994
26575 26633
385 420
25639 25659
30370 30456
30005 30069
785 802
10166 10194
9975 9996
14118 14160
26190 26222
17440 17475
30070 30074
26922 26948
30185 30253
773 811
2647 2654
28372 28379
13767 13824
12601 12695
797 871
1732 1818
13716 13770
29868 29869
9086 9168
4963 5037
30973 31043
7393 7429
29924 29984
2091 2162
27014 27088
31251 31311
1946 2010
18584 18680
20224 20278
28145 28225
10382 10408
12723 12807
26276 26318
22784 22865
21439 21496
6986 7032
2501 2504
15252 15264
4667 4684
31412 31502
20263 20343
22392 22433
27341 27385
6985 6989
25342 25354
27170 27241
834 884
17003 17009
18299 18302
28062 28077
6992 7066
6459 6506
14856 14919
28417 28455
20506 20508
29408 29495
10270 10275
29844 29906
19292 19340
20349 20379
11708 11718
29576 29600
2865 2961
17596 17611
10623 10673
21850 21864
14708 14715
6657 6738
23127 23200
3287 3343
8655 8742
23603 23688
6369 6425
14255 14321
7262 7280
6449 6534
2906 2923
24258 24322
8184 8237
2524 2615
1082 1169
13297 13354
22545 22612
27852 27922
23399 23447
25257 25329
21323 21403
26520 26539
26897 26931
1276 1340
13710 13747
26057 26155
31523 31616
1117 1197
1503 1554
8811 8839
28512 28521
12552 12639
1468 1475
11318 11368
20758 20851
20729 20787
7721 7753
3682 3725
3190 3219
17551 17584
22097 22125
28949 28962
11146 11234
15050 15077
24534 24595
26480 26516
12751 12753
30762 30774
11436 11457
11329 11399
29291 29294
13100 13152
6061 6096
1614 1637
3583 3603
26732 26747
8885 8940
13897 13985
24359 24400
25958 25984
15986 16082
30555 30596
10633 10674
16076 16083
9410 9452
3158 3258
8081 8146
26767 26825
15553 15573
19838 19882
9413 9493
25466 25481
7535 7557
28675 28774
2749 2835
26736 26799
3571 3576
13060 13144
23995 24088
13642 13655
9350 9397
11078 11099
21216 21271
23131 23176
28409 28468
10878 10882
11015 11085
11403 11412
12506 12580
10055 10091
14902 14946
11285 11375
8000 8084
15017 15039
31672 31687
5610 5645
18218 18267
12362 12394
13783 13823
28589 28637
29838 29904
8258 8278
7726 7768
15189 15223
11261 11358
7813 7819
10403 10430
6501 6525
10983 11047
30450 30478
21501 21556
7126 7171
3975 3981
1286 1334
3866 3945
6541 6607
30054 30149
30501 30521
7881 7922
4473 4568
16260 16278
24720 24750
11839 11879
8286 8335
19233 19254
6382 6472
22317 22369
2341 2421
23582 23596
21120 21217
18551 18570
17382 17448
265 304
17129 17180
28817 28916
11905 11966
964 967
16550 16596
18795 18870
13536 13549
459 527
2838 2851
7956 7990
8402 8445
30999 31008
4140 4165
29925 29926
26514 26593
683 717
20668 20743
869 910
7132 7200
27834 27894
20079 20087
7859 7876
20149 20180
11373 11433
840 854
25254 25275
11458 11459
5187 5258
27619 27711
19075 19129
334 338
20520 20575
14640 14709
23373 23455
24803 24820
24333 24370
25076 25159
28615 28658
27024 27108
5684 5779
30413 30443
2048 2072
30657 30746
14109 14126
25829 25906
8084 8183
2240 2241
9986 10004
21569 21595
12666 12694
4567 4642
6917 6940
6318 6374
11648 11664
2060 2076
26106 26113
10579 10591
3173 3216
22147 22154
22723 22729
14044 14114
28039 28086
630 631
8291 8371
16977 17032
22082 22156
15071 15146
17052 17099
19576 19603
24546 24640
10156 10194
12347 12422
5361 5386
6464 6534
7077 7096
20992 21032
24540 24619
23027 23126
28905 29003
15647 15687
25388 25467
17958 17967
29964 29978
25196 25276
9626 9637
15895 15919
21209 21238
25121 25137
31783 31835
30759 30846
7595 7652
23876 23933
10586 10614
10132 10179
25461 25511
25265 25298
24328 24368
7630 7639
23895 23951
26810 26843
2239 2280
7280 7324
6118 6148
22136 22225
27869 27959
7893 7961
14851 14867
7337 7375
6459 6515
15443 15519
25698 25781
23355 23395
8317 8408
7434 7476
4512 4542
10357 10413
8189 8251
29287 29368
782 832
18105 18197
12642 12695
6702 6777
20992 21052
4334 4341
31431 31449
10042 10100
2012 2101
21129 21209
20879 20883
10707 10774
12464 12495
21296 21337
23251 23289
25501 25556
10097 10159
20738 20802
22126 22196
9021 9083
19167 19183
8831 8855
25776 25859
6019 6077
23805 23829
22798 22810
26540 26606
19783 19817
25399 25419
2088 2110
28197 28243
12510 12585
7965 7971
30746 30834
13343 13427
5688 5763
3524 3600
7786 7879
10766 10804
24457 24487
1472 1482
25573 25611
6821 6900
13998 14081
21965 21988
16196 16267
20800 20880
15900 15942
1283 1370
9839 9921
24318 24375
28537 28586
1211 1212
13160 13217
24676 24761
31443 31463
6415 6449
19664 19762
24246 24308
13689 13733
13811 13843
24079 24082
15835 15884
6254 6300
29949 30025
8730 8739
14074 14138
22404 22413
8377 8391
29916 30016
26780 26819
2063 2127
15029 15081
20282 20356
30337 30384
16192 16231
13585 13589
11198 11269
13075 13154
27161 27229
6861 6869
7128 7199
22634 22730
5126 5198
22171 22177
24013 24061
25349 25384
16403 16492
4713 4794
3639 3727
25622 25706
27842 27921
2936 2997
20014 20085
29292 29301
3206 3288
5918 6004
9746 9756
11022 11082
3539 3585
8742 8775
18414 18479
13659 13680
3548 3561
17868 17874
2945 2950
27620 27657
28512 28606
21989 22027
2262 2359
27973 28021
6019 6097
14293 14304
21260 21339
21477 21505
31236 31252
29078 29136
1981 2041
29585 29627
1890 1969
12411 12437
6855 6943
20929 21025
9962 10017
13583 13632
14756 14770
12051 12073
19062 19078
11481 11577
16374 16465
7779 7785
25803 25845
966 1040
17590 17623
9600 9676
1178 1191
19249 19347
14852 14883
28038 28088
27934 27999
16256 16277
6548 6595
3024 3069
25945 26044
17020 17051
8385 8436
16279 16339
25591 25655
42 140
8759 8793
27678 27683
29131 29224
3667 3670
24133 24213
31637 31640
4076 4086
12471 12483
30413 30513
25479 25533
8567 8659
7623 7643
26318 26345
13812 13872
750 850
21262 21322
4762 4836
16906 16913
4147 4211
2880 2949
24223 24284
19064 19084
21038 21078
9689 9708
28123 28214
17001 17075
13827 13852
16998 17009
20196 20200
8216 8281
18426 18460
20590 20619
19872 19953
15369 15422
5625 5664
15096 15158
21645 21662
18655 18712
2465 2537
8369 8451
22451 22506
20176 20195
25622 25716
7858 7946
21042 21127
16327 16354
18769 18786
10987 10999
21363 21459
6154 6159
17961 18058
31528 31615
7921 7928
3744 3805
1010 1099
1972 2052
21171 21213
22591 22688
28851 28910
31914 31994
12880 12964
6926 6988
30414 30474
25506 25583
13345 13360
26557 26639
4384 4477
23577 23581
20667 20734
6319 6358
8961 8993
17057 17074
20832 20836
9413 9461
5875 5928
28733 28767
26009 26087
21047 21098
13830 13894
1578 1675
6031 6054
17810 17815
6878 6946
30133 30233
28763 28767
9040 9076
8795 8796
19882 19943
20483 20512
18206 18260
31454 31472
22625 22707
10253 10275
4281 4311
17198 17252
31850 31896
26294 26359
11118 11157
9220 9260
6116 6214
28365 28455
822 879
5937 6023
24420 24492
4131 4180
11127 11160
11361 11382
29579 29671
5547 5580
28774 28786
25478 25480
23596 23624
29224 29286
26879 26905
6621 6700
11047 11068
28810 28843
6314 6364
29846 29877
10444 10506
27363 27397
9078 9090
1307 1361
5618 5661
9727 9742
7676 7750
16630 16650
29090 29154
10904 10934
22493 22567
19291 19385
25451 25455
16433 16466
19164 19187
6983 7000
6727 6785
26763 26805
1955 2032
18003 18049
19766 19795
29628 29690
15136 15195
25618 25679
21606 21694
8421 8494
20357 20410
28441 28478
14849 14850
18572 18652
2019 2073
16810 16878
27042 27047
11919 11944
12656 12742
7161 7229
30046 30106
17087 17147
30301 30378
16400 16419
23416 23470
3862 3949
11870 11872
8283 8381
25767 25846
7561 7616
14531 14615
3788 3836
6165 6227
1416 1438
1081 1139
3490 3522
11483 11545
28940 29025
1320 1322
9938 9966
9792 9820
20311 20368
21430 21455
22027 22036
25728 25750
28737 28765
21344 21364
1376 1437
23866 23871
22838 22905
24126 24206
2702 2791
20099 20175
3023 3026
5341 5415
20193 20256
5011 5103
25854 25916
10437 10527
29884 29926
31254 31283
8435 8497
20111 20146
4038 4091
16920 16942
16775 16854
11693 11696
25507 25540
917 977
14170 14242
24514 24613
22126 22165
18345 18391
29579 29646
5288 5320
17067 17078
11871 11886
9992 10001
9477 9546
31232 31240
3101 3123
28809 28882
22677 22722
21619 21716
